[
  {
    "slug": "10ten-ja-reader"
  },
  {
    "pname": "onepassword-password-manager",
    "slug": "1password-x-password-manager",
    "license": {
      "tag": "custom",
      "shortName": "1pwd",
      "fullName": "Service Agreement for 1Password users and customers",
      "url": "https://1password.com/legal/terms-of-service/",
      "free": false
    }
  },
  {
    "slug": "2fas-two-factor-authentication"
  },
  {
    "slug": "a11ycss"
  },
  {
    "slug": "adblocker-ultimate"
  },
  {
    "slug": "add-custom-search-engine"
  },
  {
    "slug": "addy_io"
  },
  {
    "slug": "adnauseam"
  },
  {
    "slug": "adsum-notabs"
  },
  {
    "slug": "alfred-launcher-integration"
  },
  {
    "slug": "amp2html"
  },
  {
    "slug": "anchors-reveal"
  },
  {
    "slug": "angular-devtools"
  },
  {
    "slug": "annotations-restored"
  },
  {
    "slug": "aria2-integration"
  },
  {
    "slug": "augmented-steam"
  },
  {
    "slug": "auto-sort-bookmarks"
  },
  {
    "slug": "auto-tab-discard"
  },
  {
    "slug": "automatic-dark"
  },
  {
    "slug": "aw-watcher-web"
  },
  {
    "slug": "batchcamp"
  },
  {
    "slug": "behave"
  },
  {
    "slug": "behind-the-overlay-revival"
  },
  {
    "slug": "belgium-eid"
  },
  {
    "slug": "betterttv",
    "license": {
      "tag": "custom",
      "shortName": "betterttv",
      "fullName": "BetterTTV Terms of Service",
      "url": "https://betterttv.com/terms",
      "free": false
    }
  },
  {
    "slug": "beyond-20"
  },
  {
    "slug": "bibbot"
  },
  {
    "slug": "bitwarden-password-manager",
    "pname": "bitwarden"
  },
  {
    "slug": "blocktube"
  },
  {
    "slug": "boring-rss"
  },
  {
    "slug": "brandon1024-find"
  },
  {
    "slug": "brotab"
  },
  {
    "slug": "browserpass-ce",
    "pname": "browserpass"
  },
  {
    "slug": "bukubrow"
  },
  {
    "slug": "bulgarian-dictionary"
  },
  {
    "slug": "buster-captcha-solver"
  },
  {
    "slug": "c-c-search-extension"
  },
  {
    "slug": "canvasblocker"
  },
  {
    "slug": "castkodi"
  },
  {
    "slug": "censor-tracker"
  },
  {
    "slug": "chatgptbox"
  },
  {
    "slug": "clearcache"
  },
  {
    "slug": "clearurls"
  },
  {
    "slug": "cliget"
  },
  {
    "slug": "close-other-windows"
  },
  {
    "slug": "codecov",
    "license": {
      "tag": "predefined",
      "shortName": "asl20"
    }
  },
  {
    "slug": "commafeed"
  },
  {
    "slug": "competitive-companion"
  },
  {
    "slug": "conex"
  },
  {
    "slug": "consent-o-matic",
    "license": {
      "tag": "predefined",
      "shortName": "mit"
    }
  },
  {
    "slug": "containerise"
  },
  {
    "slug": "container-proxy"
  },
  {
    "slug": "container-tab-groups"
  },
  {
    "slug": "container-tabs-sidebar"
  },
  {
    "slug": "control-panel-for-twitter"
  },
  {
    "slug": "cookie-autodelete"
  },
  {
    "slug": "cookie-quick-manager"
  },
  {
    "slug": "cookies-txt"
  },
  {
    "pname": "copy-link-text",
    "slug": "copy-link-text-webextension"
  },
  {
    "slug": "copy-selected-links"
  },
  {
    "slug": "copy-selected-tabs-to-clipboar",
    "pname": "copy-selected-tabs-to-clipboard"
  },
  {
    "slug": "copy-selection-as-markdown"
  },
  {
    "slug": "dark-mode-webextension"
  },
  {
    "slug": "dark-mode-website-switcher"
  },
  {
    "slug": "dark-scroll-for-tweetdeck"
  },
  {
    "slug": "darkcloud"
  },
  {
    "slug": "darkreader"
  },
  {
    "slug": "dashlane",
    "license": {
      "tag": "custom",
      "shortName": "dashlane",
      "fullName": "Dashlane Terms of Service",
      "url": "https://www.dashlane.com/terms",
      "free": false
    }
  },
  {
    "slug": "dearrow"
  },
  {
    "slug": "decentraleyes"
  },
  {
    "slug": "deutsch-de-language-pack"
  },
  {
    "slug": "df-youtube"
  },
  {
    "slug": "dictionaries"
  },
  {
    "slug": "dictionary-german"
  },
  {
    "slug": "dictionnaire-français1",
    "pname": "french-dictionary"
  },
  {
    "slug": "disable-facebook-news-feed"
  },
  {
    "slug": "disable-javascript"
  },
  {
    "slug": "disconnect"
  },
  {
    "slug": "display-_anchors"
  },
  {
    "slug": "docsafterdark"
  },
  {
    "slug": "don-t-fuck-with-paste"
  },
  {
    "slug": "dracula-dark-colorscheme"
  },
  {
    "slug": "dualsub",
    "license": {
      "tag": "custom",
      "shortName": "allrightsreserved",
      "fullName": "All Rights Reserved",
      "url": "https://en.wikipedia.org/w/index.php?title=All_rights_reserved&oldid=1101263186",
      "free": false
    }
  },
  {
    "slug": "duckduckgo-for-firefox",
    "pname": "duckduckgo-privacy-essentials",
    "license": {
      "tag": "predefined",
      "shortName": "asl20"
    }
  },
  {
    "slug": "earth-view-from-google",
    "license": {
      "tag": "predefined",
      "shortName": "asl20"
    }
  },
  {
    "slug": "ebates"
  },
  {
    "slug": "ebates-express-cash-back",
    "license": {
      "tag": "predefined",
      "shortName": "mpl11"
    }
  },
  {
    "slug": "ecosia-the-green-search",
    "pname": "ecosia"
  },
  {
    "slug": "edit-with-emacs1",
    "pname": "edit-with-emacs"
  },
  {
    "slug": "elasticvue"
  },
  {
    "slug": "enhanced-github"
  },
  {
    "slug": "enhanced-h264ify"
  },
  {
    "slug": "enhancer-for-youtube",
    "license": {
      "tag": "custom",
      "shortName": "enhancer-for-youtube",
      "fullName": "Custom License for Enhancer for YouTube™",
      "url": "https://addons.mozilla.org/en-US/firefox/addon/enhancer-for-youtube/license/",
      "free": false
    }
  },
  {
    "slug": "ether-metamask",
    "pname": "metamask"
  },
  {
    "slug": "export-cookies-txt"
  },
  {
    "slug": "export-tabs-urls-and-titles"
  },
  {
    "slug": "facebook-container"
  },
  {
    "slug": "fastforwardteam",
    "license": {
      "tag": "predefined",
      "shortName": "unlicense"
    }
  },
  {
    "slug": "faststream",
    "license": {
      "tag": "custom",
      "shortName": "allrightsreserved",
      "fullName": "All Rights Reserved",
      "url": "https://en.wikipedia.org/w/index.php?title=All_rights_reserved&oldid=1101263186",
      "free": false
    }
  },
  {
    "slug": "fediact"
  },
  {
    "slug": "ff2mpv"
  },
  {
    "slug": "firefox-color"
  },
  {
    "slug": "firefox-translations"
  },
  {
    "slug": "firemonkey"
  },
  {
    "slug": "firenvim"
  },
  {
    "slug": "flagfox",
    "license": {
      "tag": "custom",
      "shortName": "flagfox",
      "fullName": "Flagfox License",
      "url": "https://addons.mozilla.org/en-US/firefox/addon/flagfox/license/",
      "free": false
    }
  },
  {
    "slug": "floccus"
  },
  {
    "slug": "forget_me_not",
    "license": {
      "tag": "predefined",
      "shortName": "zlib"
    }
  },
  {
    "slug": "form-history-control"
  },
  {
    "slug": "foxyproxy-standard"
  },
  {
    "slug": "foxytab"
  },
  {
    "slug": "fraidycat"
  },
  {
    "slug": "frame-extension"
  },
  {
    "slug": "français-language-pack",
    "pname": "french-language-pack"
  },
  {
    "slug": "freedom-website-blocker",
    "license": {
      "tag": "custom",
      "shortName": "freedom.to",
      "fullName": "freedom.to Terms of Service",
      "url": "https://freedom.to/terms",
      "free": false
    }
  },
  {
    "slug": "furiganaize"
  },
  {
    "slug": "gesturefy"
  },
  {
    "slug": "ghostery"
  },
  {
    "slug": "ghosttext"
  },
  {
    "slug": "gitako-github-file-tree"
  },
  {
    "slug": "github-file-icons"
  },
  {
    "slug": "github-isometric-contributions"
  },
  {
    "slug": "gitpod",
    "license": {
      "tag": "custom",
      "shortName": "allrightsreserved",
      "fullName": "All Rights Reserved",
      "url": "https://en.wikipedia.org/w/index.php?title=All_rights_reserved&oldid=1101263186",
      "free": false
    }
  },
  {
    "slug": "gloc"
  },
  {
    "slug": "gnome-shell-integration"
  },
  {
    "slug": "google-cal-event-merge"
  },
  {
    "slug": "gopass-bridge"
  },
  {
    "slug": "grammarly-1",
    "pname": "grammarly",
    "license": {
      "tag": "custom",
      "shortName": "grammarly",
      "fullName": "Grammarly Terms of Service and License Agreement",
      "url": "https://www.grammarly.com/terms",
      "free": false
    }
  },
  {
    "slug": "granted"
  },
  {
    "slug": "greasemonkey"
  },
  {
    "slug": "gruvbox-dark-theme"
  },
  {
    "slug": "gsconnect"
  },
  {
    "slug": "görans-hemmasnickrade-ordli",
    "pname": "swedish-dictionary"
  },
  {
    "slug": "h264ify"
  },
  {
    "slug": "hackontext"
  },
  {
    "slug": "hacktools"
  },
  {
    "slug": "header-editor"
  },
  {
    "slug": "history-cleaner"
  },
  {
    "slug": "hls-stream-detector"
  },
  {
    "slug": "honey",
    "license": {
      "tag": "custom",
      "shortName": "honeyl",
      "fullName": "Custom License for Honey",
      "url": "https://addons.mozilla.org/en-US/firefox/addon/honey/license/",
      "free": false
    }
  },
  {
    "slug": "hoppscotch"
  },
  {
    "slug": "hover-zoom-plus"
  },
  {
    "slug": "hulu-ad-blocker-firefox",
    "pname": "hulu-ad-blocker"
  },
  {
    "slug": "i-auto-fullscreen"
  },
  {
    "slug": "i-dont-care-about-cookies"
  },
  {
    "slug": "iina-open-in-mpv"
  },
  {
    "slug": "image-search-options",
    "license": {
      "tag": "predefined",
      "shortName": "mpl11"
    }
  },
  {
    "slug": "immersive-translate",
    "license": {
      "tag": "custom",
      "shortName": "immersive-translate",
      "fullName": "End-User License Agreement for Immersive Translate",
      "url": "https://addons.mozilla.org/en-US/firefox/addon/immersive-translate/eula/",
      "free": false
    }
  },
  {
    "slug": "impulse-blocker"
  },
  {
    "slug": "indie-wiki-buddy"
  },
  {
    "slug": "inkah",
    "license": {
      "tag": "custom",
      "shortName": "inkah",
      "fullName": "Inkah Terms of Service",
      "url": "https://www.inkah.com/terms-of",
      "free": false
    }
  },
  {
    "slug": "ipfs-companion"
  },
  {
    "slug": "ipvfoo",
    "license": {
      "tag": "predefined",
      "shortName": "asl20"
    }
  },
  {
    "slug": "istilldontcareaboutcookies"
  },
  {
    "slug": "jabref",
    "license": {
      "tag": "predefined",
      "shortName": "agpl3Plus"
    }
  },
  {
    "slug": "javascript-restrictor"
  },
  {
    "slug": "joplin-web-clipper"
  },
  {
    "slug": "js-search-extension"
  },
  {
    "slug": "jump-cutter",
    "license": {
      "tag": "predefined",
      "shortName": "agpl3Plus"
    }
  },
  {
    "slug": "kagi-search-for-firefox",
    "pname": "kagi-search"
  },
  {
    "slug": "keepa",
    "license": {
      "tag": "custom",
      "shortName": "keepa",
      "fullName": "License for Keepa.com - Amazon Price Tracker",
      "url": "https://addons.mozilla.org/en-CA/firefox/addon/keepa/license/",
      "free": false
    }
  },
  {
    "slug": "keepass-helper-url-in-title",
    "pname": "keepass-helper"
  },
  {
    "slug": "keepassxc-browser"
  },
  {
    "slug": "keybase-for-firefox",
    "pname": "keybase"
  },
  {
    "slug": "kristofferhagen-nord-theme"
  },
  {
    "slug": "laboratory-by-mozilla"
  },
  {
    "slug": "languagetool",
    "license": {
      "tag": "custom",
      "shortName": "languagetool",
      "fullName": "Custom License for LanguageTool",
      "url": "https://languagetool.org/legal/",
      "free": false
    }
  },
  {
    "slug": "lastpass-password-manager",
    "license": {
      "tag": "custom",
      "shortName": "unfree",
      "fullName": "Unfree",
      "url": "https://addons.mozilla.org/en-US/firefox/addon/lastpass-password-manager/license/",
      "free": false
    }
  },
  {
    "slug": "leechblock-ng"
  },
  {
    "slug": "lesspass"
  },
  {
    "slug": "libredirect"
  },
  {
    "slug": "limit-limit-distracting-sites",
    "license": {
      "tag": "custom",
      "shortName": "unfree",
      "fullName": "Unfree",
      "url": "https://freedom.to/terms",
      "free": false
    }
  },
  {
    "slug": "lingq-importer2"
  },
  {
    "slug": "link-cleaner"
  },
  {
    "slug": "link-gopher"
  },
  {
    "slug": "linkding-extension"
  },
  {
    "slug": "linkhints"
  },
  {
    "slug": "localcdn-fork-of-decentraleyes",
    "pname": "localcdn"
  },
  {
    "slug": "lovely-forks"
  },
  {
    "slug": "mailvelope"
  },
  {
    "slug": "mal-sync"
  },
  {
    "slug": "markdownload"
  },
  {
    "slug": "matte-black-red",
    "license": {
      "tag": "predefined",
      "shortName": "cc-by-nc-sa-30"
    }
  },
  {
    "slug": "maya-dark"
  },
  {
    "slug": "maya-light"
  },
  {
    "slug": "modheader-firefox",
    "pname": "modheader",
    "license": {
      "tag": "custom",
      "shortName": "modheader",
      "fullName": "Terms of Use for ModHeader",
      "url": "https://modheader.com/terms#license-terms",
      "free": false
    }
  },
  {
    "slug": "modrinthify"
  },
  {
    "slug": "momentumdash",
    "license": {
      "tag": "custom",
      "shortName": "momentum",
      "fullName": "Momentum Terms of Use",
      "url": "https://momentumdash.com/legal",
      "free": false
    }
  },
  {
    "slug": "move-unloaded-tabs-for-tst"
  },
  {
    "slug": "multi-account-containers"
  },
  {
    "slug": "multiple-tab-handler"
  },
  {
    "slug": "musescore-downloader"
  },
  {
    "slug": "native-mathml"
  },
  {
    "slug": "new-tab-override"
  },
  {
    "slug": "new-window-without-toolbar"
  },
  {
    "slug": "new-zealand-english-dict"
  },
  {
    "slug": "new_tongwentang"
  },
  {
    "slug": "news-feed-eradicator"
  },
  {
    "slug": "newtab-adapter"
  },
  {
    "slug": "ng-inspect"
  },
  {
    "slug": "nighttab"
  },
  {
    "slug": "ninja-cookie",
    "license": {
      "tag": "custom",
      "shortName": "ninja-cookie",
      "fullName": "End-User License Agreement (EULA) of Ninja Cookie",
      "url": "https://ninja-cookie.com/eula/",
      "free": false
    }
  },
  {
    "slug": "nitter-redirect"
  },
  {
    "slug": "no-pdf-download"
  },
  {
    "pname": "theme-nord-polar-night",
    "slug": "nord-polar-night-theme"
  },
  {
    "slug": "nord123"
  },
  {
    "slug": "nos2x-fox",
    "license": {
      "tag": "predefined",
      "shortName": "publicDomain"
    }
  },
  {
    "slug": "noscript"
  },
  {
    "slug": "notifier-for-github"
  },
  {
    "slug": "notion-web-clipper",
    "license": {
      "tag": "custom",
      "shortName": "notion-web-clipper",
      "fullName": "Notion Terms and Privacy",
      "url": "https://www.notion.so/Terms-and-Privacy-28ffdd083dc3473e9c2da6ec011b58ac",
      "free": false
    }
  },
  {
    "slug": "octolinker"
  },
  {
    "slug": "octotree"
  },
  {
    "slug": "offline-qr-code-generator"
  },
  {
    "slug": "okta-browser-plugin",
    "license": {
      "tag": "custom",
      "shortName": "okta",
      "fullName": "Various Okta Agreements",
      "url": "https://www.okta.com/agreements/",
      "free": false
    }
  },
  {
    "slug": "old-reddit-redirect"
  },
  {
    "slug": "omnisearch"
  },
  {
    "slug": "omnivore"
  },
  {
    "slug": "omori-headspace-by-lemon"
  },
  {
    "slug": "one-click-wayback"
  },
  {
    "slug": "onetab",
    "license": {
      "tag": "custom",
      "shortName": "onetab",
      "fullName": "Custom License for OneTab",
      "url": "https://addons.mozilla.org/en-US/firefox/addon/onetab/license/",
      "free": false
    }
  },
  {
    "slug": "open-in-browser"
  },
  {
    "slug": "open-url-in-container"
  },
  {
    "slug": "org-capture"
  },
  {
    "slug": "overbitewx"
  },
  {
    "slug": "overview"
  },
  {
    "slug": "pakkujs"
  },
  {
    "slug": "paperpile-addon",
    "pname": "paperpile",
    "license": {
      "tag": "custom",
      "shortName": "paperpile-tos",
      "fullName": "Paperpile Terms of Service",
      "url": "https://paperpile.com/tos/",
      "free": false
    }
  },
  {
    "slug": "passff"
  },
  {
    "slug": "pay-by-privacy",
    "license": {
      "tag": "custom",
      "shortName": "pay-by-privacy",
      "fullName": "Custom License for Privacy | Protect Your Payments",
      "url": "https://addons.mozilla.org/en-US/firefox/addon/pay-by-privacy/license/",
      "free": false
    }
  },
  {
    "slug": "peertubeify"
  },
  {
    "slug": "penetration-testing-kit"
  },
  {
    "slug": "persistentpin"
  },
  {
    "slug": "pinboard"
  },
  {
    "slug": "pipewire-screenaudio"
  },
  {
    "slug": "plasma-integration"
  },
  {
    "slug": "playback-speed"
  },
  {
    "slug": "pocket-select-all",
    "license": {
      "tag": "custom",
      "shortName": "unfree",
      "fullName": "Unfree",
      "url": "https://addons.mozilla.org/en-US/firefox/addon/pocket-select-all/",
      "free": false
    }
  },
  {
    "slug": "polish-spellchecker-dictionary",
    "pname": "polish-dictionary"
  },
  {
    "slug": "polkadot-js-extension",
    "pname": "polkadot-js"
  },
  {
    "slug": "privacy-badger17",
    "pname": "privacy-badger"
  },
  {
    "slug": "privacy-pass"
  },
  {
    "slug": "privacy-possum"
  },
  {
    "slug": "privacy-redirect",
    "license": {
      "tag": "predefined",
      "shortName": "gpl3Plus"
    }
  },
  {
    "slug": "privacy-settings"
  },
  {
    "slug": "private-relay"
  },
  {
    "slug": "profile-switcher"
  },
  {
    "slug": "promnesia"
  },
  {
    "slug": "pronoundb"
  },
  {
    "slug": "proton-pass"
  },
  {
    "slug": "proton-vpn-firefox-extension",
    "pname": "proton-vpn"
  },
  {
    "slug": "protondb-for-steam"
  },
  {
    "slug": "protoots",
    "license": {
      "tag": "predefined",
      "shortName": "osl3"
    }
  },
  {
    "slug": "purpleadblock"
  },
  {
    "slug": "pushbullet"
  },
  {
    "slug": "pywalfox"
  },
  {
    "slug": "qr-code-address-bar"
  },
  {
    "slug": "rabattcorner"
  },
  {
    "slug": "raindropio"
  },
  {
    "slug": "re-enable-right-click"
  },
  {
    "slug": "react-devtools"
  },
  {
    "slug": "read-aloud"
  },
  {
    "slug": "reddit-enhancement-suite"
  },
  {
    "slug": "reddit-moderator-toolbox"
  },
  {
    "slug": "reddit_comment_collapser",
    "pname": "reddit-comment-collapser"
  },
  {
    "slug": "redirector"
  },
  {
    "slug": "reduxdevtools"
  },
  {
    "slug": "refined-github-",
    "pname": "refined-github"
  },
  {
    "slug": "refined-saved-replies"
  },
  {
    "slug": "return-youtube-dislikes"
  },
  {
    "slug": "rsf-censorship-detector"
  },
  {
    "slug": "rsshub-radar"
  },
  {
    "slug": "rsspreview"
  },
  {
    "slug": "rust-search-extension"
  },
  {
    "slug": "saka-key"
  },
  {
    "slug": "save-page-we"
  },
  {
    "slug": "screenshot-capture-annotate"
  },
  {
    "slug": "scroll_anywhere",
    "license": {
      "tag": "custom",
      "shortName": "scroll-anywhere",
      "fullName": "Scroll Anywhere License",
      "url": "https://github.com/fastaddons/ScrollAnywhere/blob/master/LICENSE",
      "free": false
    }
  },
  {
    "slug": "search-engines-helper"
  },
  {
    "slug": "search_by_image",
    "pname": "search-by-image"
  },
  {
    "slug": "shaarli"
  },
  {
    "slug": "side-view"
  },
  {
    "slug": "sidebartabs"
  },
  {
    "slug": "sidebery"
  },
  {
    "slug": "simple-dark-vlasak"
  },
  {
    "slug": "simple-tab-groups"
  },
  {
    "slug": "simple-translate"
  },
  {
    "slug": "simplelogin"
  },
  {
    "slug": "single-file",
    "license": {
      "tag": "predefined",
      "shortName": "agpl3Plus"
    }
  },
  {
    "slug": "skip-redirect"
  },
  {
    "slug": "smart-referer",
    "license": {
      "tag": "predefined",
      "shortName": "wtfpl"
    }
  },
  {
    "slug": "snoozetabs"
  },
  {
    "slug": "solarized-light",
    "license": {
      "tag": "custom",
      "shortName": "all-rights-reserved",
      "fullName": "All Rights Reserved",
      "url": "https://en.wikipedia.org/wiki/All_rights_reserved",
      "free": false
    }
  },
  {
    "slug": "solarized_fox"
  },
  {
    "slug": "sourcegraph-for-firefox",
    "pname": "sourcegraph"
  },
  {
    "slug": "sponsorblock"
  },
  {
    "slug": "startpage-private-search"
  },
  {
    "slug": "startup-bookmarks"
  },
  {
    "slug": "statshunters"
  },
  {
    "slug": "steam-database",
    "license": {
      "tag": "predefined",
      "shortName": "bsd3"
    }
  },
  {
    "slug": "streetpass-for-mastodon"
  },
  {
    "slug": "styl-us",
    "pname": "stylus"
  },
  {
    "slug": "stylebot-web"
  },
  {
    "slug": "substitoot"
  },
  {
    "pname": "surfingkeys",
    "slug": "surfingkeys_ff"
  },
  {
    "slug": "switchyomega"
  },
  {
    "slug": "tab-counter-plus",
    "license": {
      "tag": "predefined",
      "shortName": "asl20"
    }
  },
  {
    "slug": "tab-reloader"
  },
  {
    "slug": "tab-retitle"
  },
  {
    "slug": "tab-session-manager"
  },
  {
    "slug": "tab-stash"
  },
  {
    "slug": "tab-unload-for-tree-style-tab"
  },
  {
    "slug": "tabcenter-reborn"
  },
  {
    "slug": "tabliss"
  },
  {
    "slug": "tampermonkey",
    "license": {
      "tag": "custom",
      "shortName": "tampermonkey",
      "fullName": "End-User License Agreement for Tampermonkey",
      "url": "https://addons.mozilla.org/en-US/firefox/addon/tampermonkey/eula/",
      "free": false
    }
  },
  {
    "slug": "temporary-containers"
  },
  {
    "slug": "terms-of-service-didnt-read",
    "license": {
      "tag": "predefined",
      "shortName": "agpl3Plus"
    }
  },
  {
    "slug": "tetrio-plus"
  },
  {
    "slug": "text-contrast-for-dark-themes"
  },
  {
    "slug": "textern"
  },
  {
    "slug": "theater-mode-for-youtube"
  },
  {
    "slug": "to-deepl"
  },
  {
    "slug": "to-google-translate"
  },
  {
    "slug": "tokyo-night-v2"
  },
  {
    "slug": "tomato-clock"
  },
  {
    "slug": "toolkit-for-ynab"
  },
  {
    "slug": "torproject-snowflake",
    "pname": "snowflake",
    "license": {
      "tag": "predefined",
      "shortName": "bsd3"
    }
  },
  {
    "slug": "torrent-control"
  },
  {
    "slug": "tournesol-extension",
    "pname": "tournesol"
  },
  {
    "slug": "traduzir-paginas-web",
    "pname": "translate-web-pages"
  },
  {
    "slug": "transparent-standalone-image"
  },
  {
    "slug": "tree-style-tab",
    "license": {
      "tag": "custom",
      "shortName": "tree-style-tab",
      "fullName": "Tree Style Tab License, primarily MPL 2.0",
      "url": "https://github.com/piroor/treestyletab/blob/trunk/COPYING.txt",
      "free": true
    }
  },
  {
    "slug": "tree-style-tab-mouse-wheel",
    "pname": "tst-wheel-and-double"
  },
  {
    "slug": "tridactyl-vim",
    "pname": "tridactyl",
    "license": {
      "tag": "predefined",
      "shortName": "asl20"
    }
  },
  {
    "slug": "tst-active-tab-on-scroll-bar"
  },
  {
    "slug": "tst-bookmarks-subpanel"
  },
  {
    "slug": "tst-fade-old-tabs"
  },
  {
    "slug": "tst-indent-line"
  },
  {
    "slug": "tst-lock-tree-collapsed"
  },
  {
    "slug": "tst-more-tree-commands"
  },
  {
    "slug": "tst-search",
    "pname": "tst-tab-search"
  },
  {
    "slug": "tubearchivist-companion"
  },
  {
    "slug": "ublacklist"
  },
  {
    "slug": "ublock-origin"
  },
  {
    "slug": "ublock-origin-lite"
  },
  {
    "slug": "ubo-scope"
  },
  {
    "slug": "ukrainian-dictionary",
    "license": {
      "tag": "predefined",
      "shortName": "mpl11"
    }
  },
  {
    "slug": "umatrix"
  },
  {
    "slug": "undoclosetabbutton"
  },
  {
    "slug": "unpaywall"
  },
  {
    "slug": "unwanted-twitch"
  },
  {
    "slug": "user-agent-string-switcher"
  },
  {
    "slug": "video-downloadhelper",
    "license": {
      "tag": "custom",
      "shortName": "vdh",
      "fullName": "Custom License for Video DownloadHelper",
      "url": "https://addons.mozilla.org/en-US/firefox/addon/video-downloadhelper/license/",
      "free": false
    }
  },
  {
    "slug": "videospeed"
  },
  {
    "slug": "view-image"
  },
  {
    "slug": "view-page-archive",
    "pname": "web-archives",
    "license": {
      "tag": "predefined",
      "shortName": "gpl3Only"
    }
  },
  {
    "slug": "vim-vixen"
  },
  {
    "slug": "vimium-c"
  },
  {
    "slug": "vimium-ff",
    "pname": "vimium"
  },
  {
    "slug": "violentmonkey"
  },
  {
    "slug": "vue-js-devtools"
  },
  {
    "slug": "w2g",
    "license": {
      "tag": "custom",
      "shortName": "w2g.tv",
      "fullName": "Watch2Gether Terms of Use",
      "url": "https://community.w2g.tv/t/terms-of-use-english/597/1",
      "free": false
    }
  },
  {
    "slug": "wallabagger"
  },
  {
    "slug": "wappalyzer",
    "license": {
      "tag": "custom",
      "shortName": "allrightsreserved",
      "fullName": "All Rights Reserved",
      "url": "https://en.wikipedia.org/w/index.php?title=All_rights_reserved&oldid=1101263186",
      "free": false
    }
  },
  {
    "slug": "wayback-machine_new",
    "pname": "wayback-machine"
  },
  {
    "slug": "web-developer"
  },
  {
    "slug": "web-eid-webextension",
    "pname": "web-eid"
  },
  {
    "slug": "web-scrobbler"
  },
  {
    "slug": "web-search-navigator"
  },
  {
    "slug": "webhint"
  },
  {
    "slug": "widegithub"
  },
  {
    "slug": "wikipedia-vector-skin"
  },
  {
    "slug": "wikiwand-wikipedia-modernized",
    "license": {
      "tag": "custom",
      "shortName": "wikiwand",
      "fullName": "Terms of Service - Wikiwand",
      "url": "https://www.wikiwand.com/terms",
      "free": false
    }
  },
  {
    "slug": "windscribe"
  },
  {
    "slug": "xbs",
    "pname": "xbrowsersync"
  },
  {
    "slug": "yomitan"
  },
  {
    "slug": "youronlinechoices-plugin",
    "pname": "youronlinechoices"
  },
  {
    "slug": "youtube-addon",
    "pname": "improved-tube",
    "license": {
      "tag": "custom",
      "shortName": "improved-tube",
      "fullName": "ImprovedTube License",
      "url": "https://github.com/code-charity/youtube/blob/master/LICENSE",
      "free": false
    }
  },
  {
    "slug": "youtube-alternative-switch"
  },
  {
    "slug": "youtube-nonstop"
  },
  {
    "slug": "youtube-recommended-videos",
    "license": {
      "tag": "custom",
      "shortName": "unhook-eula",
      "fullName": "End-User License Agreement for Unhook: Remove YouTube Recommended Videos Comments",
      "url": "https://addons.mozilla.org/en-US/firefox/addon/youtube-recommended-videos/eula/},",
      "free": false
    }
  },
  {
    "slug": "youtube-redux",
    "license": {
      "tag": "predefined",
      "shortName": "mit"
    }
  },
  {
    "slug": "youtube-screenshot-button"
  },
  {
    "slug": "youtube-shorts-block"
  },
  {
    "slug": "zoom-page-we"
  },
  {
    "slug": "zoom-redirector"
  }
]
